var Node = {
        new : func(path) {
            var m = { parents : [Node]};
            #print("path :<",path,">\n");
            m.path=path;
            return m;
        },
        getNode : func(node) {
            return Node.new(me.path~"/"~node);
        },
        setDoubleValue : func(value) {
            me.setValue(value);
        },
        setBoolValue : func(value) {
            me.setValue(value);
        },
        setValue : func(value) {
            setprop(me.path, value);
        },
        getValue : func() {
            return getprop(me.path, value);
        }
};

var globals = {
        getNode : func(path) {
            return Node.new(path);
        }
};