var doit = func(a,b) {
	return(a+b);
}


var calculate = func(c) {
	return(sin(c));
}

var hello = func(msg) {
    print(msg,"\n");
}
var p="/yes/no";
#if (p[0] == `/`) p = substr(p, 1, nil);
print("p ",p);
#var clr = caller();
#var (ns, fn, fl) = clr;
#var ctx = caller(0)[0];
#ctx["gd"]("youyou");
#print("\ctx ",typeof(caller(0)[0]));
#print("\n keys",keys(caller(0)[0]));
var ar = "@bcdef";
print("a"[0]~"\n");
for (var i=0; i<size(ar); i+=1) {
    print("letter : "~(ar[i] < "0"[0] or ar[i] > "9"[0])~"\n");
    if (ar[i] != "_"[0] and
            (ar[i] < "a"[0] or ar[i] > "z"[0]) and
            (ar[i] < "A"[0] or ar[i] > "Z"[0]) and
            (ar[i] < "0"[0] or ar[i] > "9"[0])) print("invalid\n");
}
